%YAML 1.1
%TAG !u! tag:unity3d.com,2011:
--- !u!1 &7313052587596494869
GameObject:
  m_ObjectHideFlags: 0
  m_CorrespondingSourceObject: {fileID: 0}
  m_PrefabInstance: {fileID: 0}
  m_PrefabAsset: {fileID: 0}
  serializedVersion: 6
  m_Component:
  - component: {fileID: 5827547634220095246}
  - component: {fileID: 1539891555855268248}
  - component: {fileID: 3985249496780943757}
  - component: {fileID: 1696383014113563789}
  - component: {fileID: 5453325045047601181}
  - component: {fileID: 8187909349888750150}
  m_Layer: 0
  m_Name: CubeElement
  m_TagString: Untagged
  m_Icon: {fileID: 0}
  m_NavMeshLayer: 0
  m_StaticEditorFlags: 0
  m_IsActive: 1
--- !u!4 &5827547634220095246
Transform:
  m_ObjectHideFlags: 0
  m_CorrespondingSourceObject: {fileID: 0}
  m_PrefabInstance: {fileID: 0}
  m_PrefabAsset: {fileID: 0}
  m_GameObject: {fileID: 7313052587596494869}
  m_LocalRotation: {x: 0, y: 0, z: 0, w: 1}
  m_LocalPosition: {x: 3.3374548, y: 2.9200912, z: -5.381483}
  m_LocalScale: {x: 1, y: 1, z: 1}
  m_Children: []
  m_Father: {fileID: 0}
  m_RootOrder: 0
  m_LocalEulerAnglesHint: {x: 0, y: 0, z: 0}
--- !u!33 &1539891555855268248
MeshFilter:
  m_ObjectHideFlags: 0
  m_CorrespondingSourceObject: {fileID: 0}
  m_PrefabInstance: {fileID: 0}
  m_PrefabAsset: {fileID: 0}
  m_GameObject: {fileID: 7313052587596494869}
  m_Mesh: {fileID: 0}
--- !u!23 &3985249496780943757
MeshRenderer:
  m_ObjectHideFlags: 0
  m_CorrespondingSourceObject: {fileID: 0}
  m_PrefabInstance: {fileID: 0}
  m_PrefabAsset: {fileID: 0}
  m_GameObject: {fileID: 7313052587596494869}
  m_Enabled: 1
  m_CastShadows: 1
  m_ReceiveShadows: 1
  m_DynamicOccludee: 1
  m_MotionVectors: 1
  m_LightProbeUsage: 1
  m_ReflectionProbeUsage: 1
  m_RayTracingMode: 2
  m_RayTraceProcedural: 0
  m_RenderingLayerMask: 1
  m_RendererPriority: 0
  m_Materials:
  - {fileID: 2100000, guid: 503ac9f0cd77e9641bde65075527742a, type: 2}
  m_StaticBatchInfo:
    firstSubMesh: 0
    subMeshCount: 0
  m_StaticBatchRoot: {fileID: 0}
  m_ProbeAnchor: {fileID: 0}
  m_LightProbeVolumeOverride: {fileID: 0}
  m_ScaleInLightmap: 1
  m_ReceiveGI: 1
  m_PreserveUVs: 0
  m_IgnoreNormalsForChartDetection: 0
  m_ImportantGI: 0
  m_StitchLightmapSeams: 1
  m_SelectedEditorRenderState: 2
  m_MinimumChartSize: 4
  m_AutoUVMaxDistance: 0.5
  m_AutoUVMaxAngle: 89
  m_LightmapParameters: {fileID: 0}
  m_SortingLayerID: 0
  m_SortingLayer: 0
  m_SortingOrder: 0
  m_AdditionalVertexStreams: {fileID: 0}
--- !u!114 &1696383014113563789
MonoBehaviour:
  m_ObjectHideFlags: 0
  m_CorrespondingSourceObject: {fileID: 0}
  m_PrefabInstance: {fileID: 0}
  m_PrefabAsset: {fileID: 0}
  m_GameObject: {fileID: 7313052587596494869}
  m_Enabled: 1
  m_EditorHideFlags: 0
  m_Script: {fileID: 11500000, guid: 8233d90336aea43098adf6dbabd606a2, type: 3}
  m_Name: 
  m_EditorClassIdentifier: 
  m_MeshFormatVersion: 1
  m_Faces:
  - m_Indexes: 000000000100000002000000010000000300000002000000
    m_SmoothingGroup: 0
    m_Uv:
      m_UseWorldSpace: 0
      m_FlipU: 0
      m_FlipV: 0
      m_SwapUV: 0
      m_Fill: 1
      m_Scale: {x: 1, y: 1}
      m_Offset: {x: 0, y: 0}
      m_Rotation: 0
      m_Anchor: 9
    m_Material: {fileID: 0}
    m_SubmeshIndex: 0
    m_ManualUV: 1
    elementGroup: -1
    m_TextureGroup: -1
  - m_Indexes: 040000000500000006000000050000000700000006000000
    m_SmoothingGroup: 0
    m_Uv:
      m_UseWorldSpace: 0
      m_FlipU: 0
      m_FlipV: 0
      m_SwapUV: 0
      m_Fill: 1
      m_Scale: {x: 1, y: 1}
      m_Offset: {x: 0, y: 0}
      m_Rotation: 0
      m_Anchor: 9
    m_Material: {fileID: 0}
    m_SubmeshIndex: 0
    m_ManualUV: 1
    elementGroup: -1
    m_TextureGroup: -1
  - m_Indexes: 08000000090000000a000000090000000b0000000a000000
    m_SmoothingGroup: 0
    m_Uv:
      m_UseWorldSpace: 0
      m_FlipU: 0
      m_FlipV: 0
      m_SwapUV: 0
      m_Fill: 1
      m_Scale: {x: 1, y: 1}
      m_Offset: {x: 0, y: 0}
      m_Rotation: 0
      m_Anchor: 9
    m_Material: {fileID: 0}
    m_SubmeshIndex: 0
    m_ManualUV: 1
    elementGroup: -1
    m_TextureGroup: -1
  - m_Indexes: 0c0000000d0000000e0000000d0000000f0000000e000000
    m_SmoothingGroup: 0
    m_Uv:
      m_UseWorldSpace: 0
      m_FlipU: 0
      m_FlipV: 0
      m_SwapUV: 0
      m_Fill: 1
      m_Scale: {x: 1, y: 1}
      m_Offset: {x: 0, y: 0}
      m_Rotation: 0
      m_Anchor: 9
    m_Material: {fileID: 0}
    m_SubmeshIndex: 0
    m_ManualUV: 1
    elementGroup: -1
    m_TextureGroup: -1
  - m_Indexes: 100000001100000012000000110000001300000012000000
    m_SmoothingGroup: 0
    m_Uv:
      m_UseWorldSpace: 0
      m_FlipU: 0
      m_FlipV: 0
      m_SwapUV: 0
      m_Fill: 1
      m_Scale: {x: 1, y: 1}
      m_Offset: {x: 0, y: 0}
      m_Rotation: 0
      m_Anchor: 9
    m_Material: {fileID: 0}
    m_SubmeshIndex: 0
    m_ManualUV: 1
    elementGroup: -1
    m_TextureGroup: -1
  - m_Indexes: 140000001500000016000000150000001700000016000000
    m_SmoothingGroup: 0
    m_Uv:
      m_UseWorldSpace: 0
      m_FlipU: 0
      m_FlipV: 0
      m_SwapUV: 0
      m_Fill: 1
      m_Scale: {x: 1, y: 1}
      m_Offset: {x: 0, y: 0}
      m_Rotation: 0
      m_Anchor: 9
    m_Material: {fileID: 0}
    m_SubmeshIndex: 0
    m_ManualUV: 1
    elementGroup: -1
    m_TextureGroup: -1
  - m_Indexes: 1a00000019000000180000001a0000001b00000019000000
    m_SmoothingGroup: -1
    m_Uv:
      m_UseWorldSpace: 0
      m_FlipU: 0
      m_FlipV: 0
      m_SwapUV: 0
      m_Fill: 1
      m_Scale: {x: 1, y: 1}
      m_Offset: {x: 0, y: 0}
      m_Rotation: 0
      m_Anchor: 9
    m_Material: {fileID: 0}
    m_SubmeshIndex: 0
    m_ManualUV: 0
    elementGroup: -1
    m_TextureGroup: -1
  - m_Indexes: 1e0000001d0000001c0000001e0000001f0000001d000000
    m_SmoothingGroup: -1
    m_Uv:
      m_UseWorldSpace: 0
      m_FlipU: 0
      m_FlipV: 0
      m_SwapUV: 0
      m_Fill: 1
      m_Scale: {x: 1, y: 1}
      m_Offset: {x: 0, y: 0}
      m_Rotation: 0
      m_Anchor: 9
    m_Material: {fileID: 0}
    m_SubmeshIndex: 0
    m_ManualUV: 0
    elementGroup: -1
    m_TextureGroup: -1
  - m_Indexes: 220000002100000020000000220000002300000021000000
    m_SmoothingGroup: -1
    m_Uv:
      m_UseWorldSpace: 0
      m_FlipU: 0
      m_FlipV: 0
      m_SwapUV: 0
      m_Fill: 1
      m_Scale: {x: 1, y: 1}
      m_Offset: {x: 0, y: 0}
      m_Rotation: 0
      m_Anchor: 9
    m_Material: {fileID: 0}
    m_SubmeshIndex: 0
    m_ManualUV: 0
    elementGroup: -1
    m_TextureGroup: -1
  - m_Indexes: 260000002500000024000000260000002700000025000000
    m_SmoothingGroup: -1
    m_Uv:
      m_UseWorldSpace: 0
      m_FlipU: 0
      m_FlipV: 0
      m_SwapUV: 0
      m_Fill: 1
      m_Scale: {x: 1, y: 1}
      m_Offset: {x: 0, y: 0}
      m_Rotation: 0
      m_Anchor: 9
    m_Material: {fileID: 0}
    m_SubmeshIndex: 0
    m_ManualUV: 0
    elementGroup: -1
    m_TextureGroup: -1
  - m_Indexes: 2a00000029000000280000002a0000002b00000029000000
    m_SmoothingGroup: -1
    m_Uv:
      m_UseWorldSpace: 0
      m_FlipU: 0
      m_FlipV: 0
      m_SwapUV: 0
      m_Fill: 1
      m_Scale: {x: 1, y: 1}
      m_Offset: {x: 0, y: 0}
      m_Rotation: 0
      m_Anchor: 9
    m_Material: {fileID: 0}
    m_SubmeshIndex: 0
    m_ManualUV: 0
    elementGroup: -1
    m_TextureGroup: -1
  - m_Indexes: 2e0000002d0000002c0000002e0000002f0000002d000000
    m_SmoothingGroup: -1
    m_Uv:
      m_UseWorldSpace: 0
      m_FlipU: 0
      m_FlipV: 0
      m_SwapUV: 0
      m_Fill: 1
      m_Scale: {x: 1, y: 1}
      m_Offset: {x: 0, y: 0}
      m_Rotation: 0
      m_Anchor: 9
    m_Material: {fileID: 0}
    m_SubmeshIndex: 0
    m_ManualUV: 0
    elementGroup: -1
    m_TextureGroup: -1
  - m_Indexes: 320000003100000030000000320000003300000031000000
    m_SmoothingGroup: -1
    m_Uv:
      m_UseWorldSpace: 0
      m_FlipU: 0
      m_FlipV: 0
      m_SwapUV: 0
      m_Fill: 1
      m_Scale: {x: 1, y: 1}
      m_Offset: {x: 0, y: 0}
      m_Rotation: 0
      m_Anchor: 9
    m_Material: {fileID: 0}
    m_SubmeshIndex: 0
    m_ManualUV: 0
    elementGroup: -1
    m_TextureGroup: -1
  - m_Indexes: 360000003500000034000000360000003700000035000000
    m_SmoothingGroup: -1
    m_Uv:
      m_UseWorldSpace: 0
      m_FlipU: 0
      m_FlipV: 0
      m_SwapUV: 0
      m_Fill: 1
      m_Scale: {x: 1, y: 1}
      m_Offset: {x: 0, y: 0}
      m_Rotation: 0
      m_Anchor: 9
    m_Material: {fileID: 0}
    m_SubmeshIndex: 0
    m_ManualUV: 0
    elementGroup: -1
    m_TextureGroup: -1
  - m_Indexes: 3a00000039000000380000003a0000003b00000039000000
    m_SmoothingGroup: -1
    m_Uv:
      m_UseWorldSpace: 0
      m_FlipU: 0
      m_FlipV: 0
      m_SwapUV: 0
      m_Fill: 1
      m_Scale: {x: 1, y: 1}
      m_Offset: {x: 0, y: 0}
      m_Rotation: 0
      m_Anchor: 9
    m_Material: {fileID: 0}
    m_SubmeshIndex: 0
    m_ManualUV: 0
    elementGroup: -1
    m_TextureGroup: -1
  - m_Indexes: 3e0000003d0000003c0000003e0000003f0000003d000000
    m_SmoothingGroup: -1
    m_Uv:
      m_UseWorldSpace: 0
      m_FlipU: 0
      m_FlipV: 0
      m_SwapUV: 0
      m_Fill: 1
      m_Scale: {x: 1, y: 1}
      m_Offset: {x: 0, y: 0}
      m_Rotation: 0
      m_Anchor: 9
    m_Material: {fileID: 0}
    m_SubmeshIndex: 0
    m_ManualUV: 0
    elementGroup: -1
    m_TextureGroup: -1
  - m_Indexes: 420000004100000040000000420000004300000041000000
    m_SmoothingGroup: -1
    m_Uv:
      m_UseWorldSpace: 0
      m_FlipU: 0
      m_FlipV: 0
      m_SwapUV: 0
      m_Fill: 1
      m_Scale: {x: 1, y: 1}
      m_Offset: {x: 0, y: 0}
      m_Rotation: 0
      m_Anchor: 9
    m_Material: {fileID: 0}
    m_SubmeshIndex: 0
    m_ManualUV: 0
    elementGroup: -1
    m_TextureGroup: -1
  - m_Indexes: 460000004500000044000000460000004700000045000000
    m_SmoothingGroup: -1
    m_Uv:
      m_UseWorldSpace: 0
      m_FlipU: 0
      m_FlipV: 0
      m_SwapUV: 0
      m_Fill: 1
      m_Scale: {x: 1, y: 1}
      m_Offset: {x: 0, y: 0}
      m_Rotation: 0
      m_Anchor: 9
    m_Material: {fileID: 0}
    m_SubmeshIndex: 0
    m_ManualUV: 0
    elementGroup: -1
    m_TextureGroup: -1
  - m_Indexes: 4a0000004900000048000000
    m_SmoothingGroup: 0
    m_Uv:
      m_UseWorldSpace: 0
      m_FlipU: 0
      m_FlipV: 0
      m_SwapUV: 0
      m_Fill: 1
      m_Scale: {x: 1, y: 1}
      m_Offset: {x: 0, y: 0}
      m_Rotation: 0
      m_Anchor: 9
    m_Material: {fileID: 2100000, guid: c22777d6e868e4f2fb421913386b154e, type: 2}
    m_SubmeshIndex: 0
    m_ManualUV: 0
    elementGroup: 0
    m_TextureGroup: -1
  - m_Indexes: 4b0000004c0000004d000000
    m_SmoothingGroup: 0
    m_Uv:
      m_UseWorldSpace: 0
      m_FlipU: 0
      m_FlipV: 0
      m_SwapUV: 0
      m_Fill: 1
      m_Scale: {x: 1, y: 1}
      m_Offset: {x: 0, y: 0}
      m_Rotation: 0
      m_Anchor: 9
    m_Material: {fileID: 2100000, guid: c22777d6e868e4f2fb421913386b154e, type: 2}
    m_SubmeshIndex: 0
    m_ManualUV: 0
    elementGroup: 0
    m_TextureGroup: -1
  - m_Indexes: 4e0000004f00000050000000
    m_SmoothingGroup: 0
    m_Uv:
      m_UseWorldSpace: 0
      m_FlipU: 0
      m_FlipV: 0
      m_SwapUV: 0
      m_Fill: 1
      m_Scale: {x: 1, y: 1}
      m_Offset: {x: 0, y: 0}
      m_Rotation: 0
      m_Anchor: 9
    m_Material: {fileID: 2100000, guid: c22777d6e868e4f2fb421913386b154e, type: 2}
    m_SubmeshIndex: 0
    m_ManualUV: 0
    elementGroup: 0
    m_TextureGroup: -1
  - m_Indexes: 530000005200000051000000
    m_SmoothingGroup: 0
    m_Uv:
      m_UseWorldSpace: 0
      m_FlipU: 0
      m_FlipV: 0
      m_SwapUV: 0
      m_Fill: 1
      m_Scale: {x: 1, y: 1}
      m_Offset: {x: 0, y: 0}
      m_Rotation: 0
      m_Anchor: 9
    m_Material: {fileID: 2100000, guid: c22777d6e868e4f2fb421913386b154e, type: 2}
    m_SubmeshIndex: 0
    m_ManualUV: 0
    elementGroup: 0
    m_TextureGroup: -1
  - m_Indexes: 560000005500000054000000
    m_SmoothingGroup: 0
    m_Uv:
      m_UseWorldSpace: 0
      m_FlipU: 0
      m_FlipV: 0
      m_SwapUV: 0
      m_Fill: 1
      m_Scale: {x: 1, y: 1}
      m_Offset: {x: 0, y: 0}
      m_Rotation: 0
      m_Anchor: 9
    m_Material: {fileID: 2100000, guid: c22777d6e868e4f2fb421913386b154e, type: 2}
    m_SubmeshIndex: 0
    m_ManualUV: 0
    elementGroup: 0
    m_TextureGroup: -1
  - m_Indexes: 570000005800000059000000
    m_SmoothingGroup: 0
    m_Uv:
      m_UseWorldSpace: 0
      m_FlipU: 0
      m_FlipV: 0
      m_SwapUV: 0
      m_Fill: 1
      m_Scale: {x: 1, y: 1}
      m_Offset: {x: 0, y: 0}
      m_Rotation: 0
      m_Anchor: 9
    m_Material: {fileID: 2100000, guid: c22777d6e868e4f2fb421913386b154e, type: 2}
    m_SubmeshIndex: 0
    m_ManualUV: 0
    elementGroup: 0
    m_TextureGroup: -1
  - m_Indexes: 5c0000005b0000005a000000
    m_SmoothingGroup: 0
    m_Uv:
      m_UseWorldSpace: 0
      m_FlipU: 0
      m_FlipV: 0
      m_SwapUV: 0
      m_Fill: 1
      m_Scale: {x: 1, y: 1}
      m_Offset: {x: 0, y: 0}
      m_Rotation: 0
      m_Anchor: 9
    m_Material: {fileID: 2100000, guid: c22777d6e868e4f2fb421913386b154e, type: 2}
    m_SubmeshIndex: 0
    m_ManualUV: 0
    elementGroup: 0
    m_TextureGroup: -1
  - m_Indexes: 5d0000005e0000005f000000
    m_SmoothingGroup: 0
    m_Uv:
      m_UseWorldSpace: 0
      m_FlipU: 0
      m_FlipV: 0
      m_SwapUV: 0
      m_Fill: 1
      m_Scale: {x: 1, y: 1}
      m_Offset: {x: 0, y: 0}
      m_Rotation: 0
      m_Anchor: 9
    m_Material: {fileID: 2100000, guid: c22777d6e868e4f2fb421913386b154e, type: 2}
    m_SubmeshIndex: 0
    m_ManualUV: 0
    elementGroup: 0
    m_TextureGroup: -1
  m_SharedVertices:
  - m_Vertices: 000000001d0000003c0000004e000000
  - m_Vertices: 010000003d000000440000005d000000
  - m_Vertices: 020000001c000000350000004a000000
  - m_Vertices: 0300000034000000450000005a000000
  - m_Vertices: 0400000040000000460000005f000000
  - m_Vertices: 05000000300000004100000056000000
  - m_Vertices: 0600000039000000470000005c000000
  - m_Vertices: 07000000310000003800000059000000
  - m_Vertices: 08000000240000003200000054000000
  - m_Vertices: 09000000250000002c00000053000000
  - m_Vertices: 0a000000290000003300000057000000
  - m_Vertices: 0b000000280000002d0000004d000000
  - m_Vertices: 0c000000200000002e00000051000000
  - m_Vertices: 0d0000001f000000210000004f000000
  - m_Vertices: 0e000000190000002f0000004b000000
  - m_Vertices: 0f000000180000001e00000048000000
  - m_Vertices: 100000001a0000003700000049000000
  - m_Vertices: 11000000360000003b0000005b000000
  - m_Vertices: 120000001b0000002a0000004c000000
  - m_Vertices: 130000002b0000003a00000058000000
  - m_Vertices: 14000000220000002700000052000000
  - m_Vertices: 15000000260000004300000055000000
  - m_Vertices: 16000000230000003e00000050000000
  - m_Vertices: 170000003f000000420000005e000000
  m_SharedTextures: []
  m_Positions:
  - {x: 0.025801137, y: 0.025801137, z: 0}
  - {x: 0.9741989, y: 0.025801137, z: 0}
  - {x: 0.025801137, y: 0.9741989, z: 0}
  - {x: 0.9741989, y: 0.9741989, z: 0}
  - {x: 1, y: 0.025801137, z: -0.025801137}
  - {x: 1, y: 0.025801137, z: -0.9741989}
  - {x: 1, y: 0.9741989, z: -0.025801137}
  - {x: 1, y: 0.9741989, z: -0.9741989}
  - {x: 0.9741989, y: 0.025801137, z: -1}
  - {x: 0.025801137, y: 0.025801137, z: -1}
  - {x: 0.9741989, y: 0.9741989, z: -1}
  - {x: 0.025801137, y: 0.9741989, z: -1}
  - {x: 0, y: 0.025801137, z: -0.9741989}
  - {x: 0, y: 0.025801137, z: -0.025801137}
  - {x: 0, y: 0.9741989, z: -0.9741989}
  - {x: 0, y: 0.9741989, z: -0.025801137}
  - {x: 0.025801137, y: 1, z: -0.025801137}
  - {x: 0.9741989, y: 1, z: -0.025801137}
  - {x: 0.025801137, y: 1, z: -0.9741989}
  - {x: 0.9741989, y: 1, z: -0.9741989}
  - {x: 0.025801137, y: 0, z: -0.9741989}
  - {x: 0.9741989, y: 0, z: -0.9741989}
  - {x: 0.025801137, y: 0, z: -0.025801137}
  - {x: 0.9741989, y: 0, z: -0.025801137}
  - {x: 0, y: 0.9741989, z: -0.025801137}
  - {x: 0, y: 0.9741989, z: -0.9741989}
  - {x: 0.025801137, y: 1, z: -0.025801137}
  - {x: 0.025801137, y: 1, z: -0.9741989}
  - {x: 0.025801137, y: 0.9741989, z: 0}
  - {x: 0.025801137, y: 0.025801137, z: 0}
  - {x: 0, y: 0.9741989, z: -0.025801137}
  - {x: 0, y: 0.025801137, z: -0.025801137}
  - {x: 0, y: 0.025801137, z: -0.9741989}
  - {x: 0, y: 0.025801137, z: -0.025801137}
  - {x: 0.025801137, y: 0, z: -0.9741989}
  - {x: 0.025801137, y: 0, z: -0.025801137}
  - {x: 0.9741989, y: 0.025801137, z: -1}
  - {x: 0.025801137, y: 0.025801137, z: -1}
  - {x: 0.9741989, y: 0, z: -0.9741989}
  - {x: 0.025801137, y: 0, z: -0.9741989}
  - {x: 0.025801137, y: 0.9741989, z: -1}
  - {x: 0.9741989, y: 0.9741989, z: -1}
  - {x: 0.025801137, y: 1, z: -0.9741989}
  - {x: 0.9741989, y: 1, z: -0.9741989}
  - {x: 0.025801137, y: 0.025801137, z: -1}
  - {x: 0.025801137, y: 0.9741989, z: -1}
  - {x: 0, y: 0.025801137, z: -0.9741989}
  - {x: 0, y: 0.9741989, z: -0.9741989}
  - {x: 1, y: 0.025801137, z: -0.9741989}
  - {x: 1, y: 0.9741989, z: -0.9741989}
  - {x: 0.9741989, y: 0.025801137, z: -1}
  - {x: 0.9741989, y: 0.9741989, z: -1}
  - {x: 0.9741989, y: 0.9741989, z: 0}
  - {x: 0.025801137, y: 0.9741989, z: 0}
  - {x: 0.9741989, y: 1, z: -0.025801137}
  - {x: 0.025801137, y: 1, z: -0.025801137}
  - {x: 1, y: 0.9741989, z: -0.9741989}
  - {x: 1, y: 0.9741989, z: -0.025801137}
  - {x: 0.9741989, y: 1, z: -0.9741989}
  - {x: 0.9741989, y: 1, z: -0.025801137}
  - {x: 0.025801137, y: 0.025801137, z: 0}
  - {x: 0.9741989, y: 0.025801137, z: 0}
  - {x: 0.025801137, y: 0, z: -0.025801137}
  - {x: 0.9741989, y: 0, z: -0.025801137}
  - {x: 1, y: 0.025801137, z: -0.025801137}
  - {x: 1, y: 0.025801137, z: -0.9741989}
  - {x: 0.9741989, y: 0, z: -0.025801137}
  - {x: 0.9741989, y: 0, z: -0.9741989}
  - {x: 0.9741989, y: 0.025801137, z: 0}
  - {x: 0.9741989, y: 0.9741989, z: 0}
  - {x: 1, y: 0.025801137, z: -0.025801137}
  - {x: 1, y: 0.9741989, z: -0.025801137}
  - {x: 0, y: 0.9741989, z: -0.025801137}
  - {x: 0.025801137, y: 1, z: -0.025801137}
  - {x: 0.025801137, y: 0.9741989, z: 0}
  - {x: 0, y: 0.9741989, z: -0.9741989}
  - {x: 0.025801137, y: 1, z: -0.9741989}
  - {x: 0.025801137, y: 0.9741989, z: -1}
  - {x: 0.025801137, y: 0.025801137, z: 0}
  - {x: 0, y: 0.025801137, z: -0.025801137}
  - {x: 0.025801137, y: 0, z: -0.025801137}
  - {x: 0, y: 0.025801137, z: -0.9741989}
  - {x: 0.025801137, y: 0, z: -0.9741989}
  - {x: 0.025801137, y: 0.025801137, z: -1}
  - {x: 0.9741989, y: 0.025801137, z: -1}
  - {x: 0.9741989, y: 0, z: -0.9741989}
  - {x: 1, y: 0.025801137, z: -0.9741989}
  - {x: 0.9741989, y: 0.9741989, z: -1}
  - {x: 0.9741989, y: 1, z: -0.9741989}
  - {x: 1, y: 0.9741989, z: -0.9741989}
  - {x: 0.9741989, y: 0.9741989, z: 0}
  - {x: 0.9741989, y: 1, z: -0.025801137}
  - {x: 1, y: 0.9741989, z: -0.025801137}
  - {x: 0.9741989, y: 0.025801137, z: 0}
  - {x: 0.9741989, y: 0, z: -0.025801137}
  - {x: 1, y: 0.025801137, z: -0.025801137}
  m_Textures0:
  - {x: -0.025801137, y: 0.025801137}
  - {x: -0.9741989, y: 0.025801137}
  - {x: -0.025801137, y: 0.9741989}
  - {x: -0.9741989, y: 0.9741989}
  - {x: -0.025801137, y: 0.025801137}
  - {x: -0.9741989, y: 0.025801137}
  - {x: -0.025801137, y: 0.9741989}
  - {x: -0.9741989, y: 0.9741989}
  - {x: 0.9741989, y: 0.025801137}
  - {x: 0.025801137, y: 0.025801137}
  - {x: 0.9741989, y: 0.9741989}
  - {x: 0.025801137, y: 0.9741989}
  - {x: 0.9741989, y: 0.025801137}
  - {x: 0.025801137, y: 0.025801137}
  - {x: 0.9741989, y: 0.9741989}
  - {x: 0.025801137, y: 0.9741989}
  - {x: 0.025801137, y: -0.025801137}
  - {x: 0.9741989, y: -0.025801137}
  - {x: 0.025801137, y: -0.9741989}
  - {x: 0.9741989, y: -0.9741989}
  - {x: -0.025801137, y: -0.9741989}
  - {x: -0.9741989, y: -0.9741989}
  - {x: -0.025801137, y: -0.025801137}
  - {x: -0.9741989, y: -0.025801137}
  - {x: 0.68886244, y: -0.025801137}
  - {x: 0.68886244, y: -0.9741989}
  - {x: 0.72535074, y: -0.025801137}
  - {x: 0.72535074, y: -0.9741989}
  - {x: -0.018244158, y: 0.9741989}
  - {x: -0.018244158, y: 0.025801137}
  - {x: 0.018244158, y: 0.9741989}
  - {x: 0.018244158, y: 0.025801137}
  - {x: 0.018244158, y: -0.9741989}
  - {x: 0.018244158, y: -0.025801137}
  - {x: -0.018244158, y: -0.9741989}
  - {x: -0.018244158, y: -0.025801137}
  - {x: 0.9741989, y: 0.7253507}
  - {x: 0.025801137, y: 0.7253507}
  - {x: 0.9741989, y: 0.6888624}
  - {x: 0.025801137, y: 0.6888624}
  - {x: 0.025801137, y: -0.01824415}
  - {x: 0.9741989, y: -0.01824415}
  - {x: 0.025801137, y: 0.01824415}
  - {x: 0.9741989, y: 0.01824415}
  - {x: 0.72535074, y: 0.025801137}
  - {x: 0.72535074, y: 0.9741989}
  - {x: 0.68886244, y: 0.025801137}
  - {x: 0.68886244, y: 0.9741989}
  - {x: 0.018244147, y: 0.025801137}
  - {x: 0.018244147, y: 0.9741989}
  - {x: -0.018244147, y: 0.025801137}
  - {x: -0.018244147, y: 0.9741989}
  - {x: -0.9741989, y: 0.68886244}
  - {x: -0.025801137, y: 0.68886244}
  - {x: -0.9741989, y: 0.72535074}
  - {x: -0.025801137, y: 0.72535074}
  - {x: 0.018244147, y: -0.9741989}
  - {x: 0.018244147, y: -0.025801137}
  - {x: -0.018244147, y: -0.9741989}
  - {x: -0.018244147, y: -0.025801137}
  - {x: -0.025801137, y: 0.01824416}
  - {x: -0.9741989, y: 0.01824416}
  - {x: -0.025801137, y: -0.01824416}
  - {x: -0.9741989, y: -0.01824416}
  - {x: -0.72535074, y: -0.025801137}
  - {x: -0.72535074, y: -0.9741989}
  - {x: -0.68886244, y: -0.025801137}
  - {x: -0.68886244, y: -0.9741989}
  - {x: -0.68886244, y: 0.025801137}
  - {x: -0.68886244, y: 0.9741989}
  - {x: -0.72535074, y: 0.025801137}
  - {x: -0.72535074, y: 0.9741989}
  - {x: 0.01824416, y: 0.80596316}
  - {x: 0, y: 0.837563}
  - {x: -0.01824416, y: 0.80596316}
  - {x: 0.6888624, y: 0.39771476}
  - {x: 0.70710653, y: 0.42931455}
  - {x: 0.7253507, y: 0.39771476}
  - {x: -0.018244158, y: 0.0105332695}
  - {x: 0.018244158, y: 0.0105332695}
  - {x: 0, y: -0.021066539}
  - {x: 0.68886244, y: 0.41878158}
  - {x: 0.7071066, y: 0.3871818}
  - {x: 0.72535074, y: 0.41878158}
  - {x: -0.018244147, y: 0.8270295}
  - {x: 0, y: 0.7954297}
  - {x: 0.018244147, y: 0.8270295}
  - {x: -0.018244147, y: -0.010533264}
  - {x: 0, y: 0.021066528}
  - {x: 0.018244147, y: -0.010533264}
  - {x: -0.6888624, y: 0.39771476}
  - {x: -0.70710653, y: 0.42931455}
  - {x: -0.7253507, y: 0.39771476}
  - {x: -0.68886244, y: 0.41878158}
  - {x: -0.7071066, y: 0.3871818}
  - {x: -0.72535074, y: 0.41878158}
  m_Textures2: []
  m_Textures3: []
  m_Tangents:
  - {x: -1, y: 0, z: 0, w: -1}
  - {x: -1, y: 0, z: 0, w: -1}
  - {x: -1, y: 0, z: 0, w: -1}
  - {x: -1, y: 0, z: 0, w: -1}
  - {x: 0, y: 0, z: 1, w: -1}
  - {x: 0, y: 0, z: 1, w: -1}
  - {x: 0, y: 0, z: 1, w: -1}
  - {x: 0, y: 0, z: 1, w: -1}
  - {x: 1, y: 0, z: 0, w: -1}
  - {x: 1, y: 0, z: 0, w: -1}
  - {x: 1, y: 0, z: 0, w: -1}
  - {x: 1, y: 0, z: 0, w: -1}
  - {x: 0, y: 0, z: -1, w: -1}
  - {x: 0, y: 0, z: -1, w: -1}
  - {x: 0, y: 0, z: -1, w: -1}
  - {x: 0, y: 0, z: -1, w: -1}
  - {x: 1, y: 0, z: 0, w: -1}
  - {x: 1, y: 0, z: 0, w: -1}
  - {x: 1, y: 0, z: 0, w: -1}
  - {x: 1, y: 0, z: 0, w: -1}
  - {x: -1, y: 0, z: 0, w: -1}
  - {x: -1, y: 0, z: 0, w: -1}
  - {x: -1, y: 0, z: 0, w: -1}
  - {x: -1, y: 0, z: 0, w: -1}
  - {x: 0.707107, y: 0.7071066, z: 0, w: -1}
  - {x: 0.707107, y: 0.7071066, z: 0, w: -1}
  - {x: 0.707107, y: 0.7071066, z: 0, w: -1}
  - {x: 0.707107, y: 0.7071066, z: 0, w: -1}
  - {x: -0.7071068, y: 0, z: -0.7071068, w: -1}
  - {x: -0.7071068, y: 0, z: -0.7071068, w: -1}
  - {x: -0.7071068, y: 0, z: -0.7071068, w: -1}
  - {x: -0.7071068, y: 0, z: -0.7071068, w: -1}
  - {x: -0.7071068, y: 0.7071068, z: 0, w: -1}
  - {x: -0.7071068, y: 0.7071068, z: 0, w: -1}
  - {x: -0.7071068, y: 0.7071068, z: 0, w: -1}
  - {x: -0.7071068, y: 0.7071068, z: 0, w: -1}
  - {x: 1, y: 0, z: 0, w: -1}
  - {x: 1, y: 0, z: 0, w: -1}
  - {x: 1, y: 0, z: 0, w: -1}
  - {x: 1, y: 0, z: 0, w: -1}
  - {x: 1, y: 0, z: 0, w: -1}
  - {x: 1, y: 0, z: 0, w: -1}
  - {x: 1, y: 0, z: 0, w: -1}
  - {x: 1, y: 0, z: 0, w: -1}
  - {x: 0.707107, y: 0, z: -0.7071066, w: -1}
  - {x: 0.707107, y: 0, z: -0.7071066, w: -1}
  - {x: 0.707107, y: 0, z: -0.7071066, w: -1}
  - {x: 0.707107, y: 0, z: -0.7071066, w: -1}
  - {x: 0.7071068, y: 0, z: 0.7071068, w: -1}
  - {x: 0.7071068, y: 0, z: 0.7071068, w: -1}
  - {x: 0.7071068, y: 0, z: 0.7071068, w: -1}
  - {x: 0.7071068, y: 0, z: 0.7071068, w: -1}
  - {x: -1, y: 0, z: 0, w: -1}
  - {x: -1, y: 0, z: 0, w: -1}
  - {x: -1, y: 0, z: 0, w: -1}
  - {x: -1, y: 0, z: 0, w: -1}
  - {x: 0.7071068, y: -0.7071068, z: 0, w: -1}
  - {x: 0.7071068, y: -0.7071068, z: 0, w: -1}
  - {x: 0.7071068, y: -0.7071068, z: 0, w: -1}
  - {x: 0.7071068, y: -0.7071068, z: 0, w: -1}
  - {x: -1, y: 0, z: 0, w: -1}
  - {x: -1, y: 0, z: 0, w: -1}
  - {x: -1, y: 0, z: 0, w: -1}
  - {x: -1, y: 0, z: 0, w: -1}
  - {x: -0.7071066, y: -0.707107, z: 0, w: -1}
  - {x: -0.7071066, y: -0.707107, z: 0, w: -1}
  - {x: -0.7071066, y: -0.707107, z: 0, w: -1}
  - {x: -0.7071066, y: -0.707107, z: 0, w: -1}
  - {x: -0.7071066, y: 0, z: 0.707107, w: -1}
  - {x: -0.7071066, y: 0, z: 0.707107, w: -1}
  - {x: -0.7071066, y: 0, z: 0.707107, w: -1}
  - {x: -0.7071066, y: 0, z: 0.707107, w: -1}
  - {x: -0.70710677, y: 0, z: -0.70710677, w: -1}
  - {x: -0.70710677, y: 0, z: -0.70710677, w: -1}
  - {x: -0.70710677, y: 0, z: -0.70710677, w: -1}
  - {x: 0.707107, y: 0, z: -0.7071066, w: -1}
  - {x: 0.707107, y: 0, z: -0.7071066, w: -1}
  - {x: 0.707107, y: 0, z: -0.7071066, w: -1}
  - {x: -0.7071068, y: 0, z: -0.7071068, w: -1}
  - {x: -0.7071068, y: 0, z: -0.7071068, w: -1}
  - {x: -0.7071068, y: 0, z: -0.7071068, w: -1}
  - {x: 0.707107, y: -0.000000017206371, z: -0.7071066, w: -1}
  - {x: 0.707107, y: -0.000000017206371, z: -0.7071066, w: -1}
  - {x: 0.707107, y: -0.000000017206371, z: -0.7071066, w: -1}
  - {x: 0.7071068, y: 0, z: 0.7071068, w: -1}
  - {x: 0.7071068, y: 0, z: 0.7071068, w: -1}
  - {x: 0.7071068, y: 0, z: 0.7071068, w: -1}
  - {x: 0.7071068, y: 0, z: 0.7071068, w: -1}
  - {x: 0.7071068, y: 0, z: 0.7071068, w: -1}
  - {x: 0.7071068, y: 0, z: 0.7071068, w: -1}
  - {x: -0.7071066, y: 0, z: 0.707107, w: -1}
  - {x: -0.7071066, y: 0, z: 0.707107, w: -1}
  - {x: -0.7071066, y: 0, z: 0.707107, w: -1}
  - {x: -0.7071066, y: 0.000000017206371, z: 0.707107, w: -1}
  - {x: -0.7071066, y: 0.000000017206371, z: 0.707107, w: -1}
  - {x: -0.7071066, y: 0.000000017206371, z: 0.707107, w: -1}
  m_Colors: []
  m_UnwrapParameters:
    m_HardAngle: 88
    m_PackMargin: 20
    m_AngleError: 8
    m_AreaError: 15
  m_PreserveMeshAssetOnDestroy: 0
  assetGuid: 
  m_Mesh: {fileID: 0}
  m_IsSelectable: 1
  m_SelectedFaces: 
  m_SelectedEdges: []
  m_SelectedVertices: 
--- !u!64 &5453325045047601181
MeshCollider:
  m_ObjectHideFlags: 0
  m_CorrespondingSourceObject: {fileID: 0}
  m_PrefabInstance: {fileID: 0}
  m_PrefabAsset: {fileID: 0}
  m_GameObject: {fileID: 7313052587596494869}
  m_Material: {fileID: 0}
  m_IsTrigger: 0
  m_Enabled: 1
  serializedVersion: 4
  m_Convex: 0
  m_CookingOptions: 30
  m_Mesh: {fileID: 0}
--- !u!114 &8187909349888750150
MonoBehaviour:
  m_ObjectHideFlags: 0
  m_CorrespondingSourceObject: {fileID: 0}
  m_PrefabInstance: {fileID: 0}
  m_PrefabAsset: {fileID: 0}
  m_GameObject: {fileID: 7313052587596494869}
  m_Enabled: 1
  m_EditorHideFlags: 0
  m_Script: {fileID: 11500000, guid: 78573cff5be53164385bc4d8617dcaf7, type: 3}
  m_Name: 
  m_EditorClassIdentifier: 
  normalColor: {r: 0.9529412, g: 0.8352941, b: 0.30588236, a: 1}
  normalHoverColor: {r: 0.87058824, g: 0.8509804, b: 0.7019608, a: 1}
  rightColor: {r: 0.3882353, g: 0.6, b: 0.67058825, a: 1}
  rightHoverColor: {r: 0.7254902, g: 0.8509804, b: 0.92156863, a: 1}
  wrongColor: {r: 0.7764706, g: 0.047058824, b: 0.1882353, a: 1}
  cubeID: 0
