%YAML 1.1
%TAG !u! tag:unity3d.com,2011:
--- !u!1001 &2234004649674087609
PrefabInstance:
  m_ObjectHideFlags: 0
  serializedVersion: 2
  m_Modification:
    m_TransformParent: {fileID: 0}
    m_Modifications:
    - target: {fileID: 7719174857061144634, guid: 7d8b802f3e81fc249b07815a12d9e848, type: 3}
      propertyPath: m_Name
      value: DescriptionsAlt
      objectReference: {fileID: 0}
    - target: {fileID: 7719174857061144635, guid: 7d8b802f3e81fc249b07815a12d9e848, type: 3}
      propertyPath: m_Pivot.x
      value: 0
      objectReference: {fileID: 0}
    - target: {fileID: 7719174857061144635, guid: 7d8b802f3e81fc249b07815a12d9e848, type: 3}
      propertyPath: m_Pivot.y
      value: 0.5
      objectReference: {fileID: 0}
    - target: {fileID: 7719174857061144635, guid: 7d8b802f3e81fc249b07815a12d9e848, type: 3}
      propertyPath: m_RootOrder
      value: 0
      objectReference: {fileID: 0}
    - target: {fileID: 7719174857061144635, guid: 7d8b802f3e81fc249b07815a12d9e848, type: 3}
      propertyPath: m_AnchorMax.x
      value: 1
      objectReference: {fileID: 0}
    - target: {fileID: 7719174857061144635, guid: 7d8b802f3e81fc249b07815a12d9e848, type: 3}
      propertyPath: m_AnchorMax.y
      value: 1
      objectReference: {fileID: 0}
    - target: {fileID: 7719174857061144635, guid: 7d8b802f3e81fc249b07815a12d9e848, type: 3}
      propertyPath: m_AnchorMin.x
      value: 0
      objectReference: {fileID: 0}
    - target: {fileID: 7719174857061144635, guid: 7d8b802f3e81fc249b07815a12d9e848, type: 3}
      propertyPath: m_AnchorMin.y
      value: 1
      objectReference: {fileID: 0}
    - target: {fileID: 7719174857061144635, guid: 7d8b802f3e81fc249b07815a12d9e848, type: 3}
      propertyPath: m_SizeDelta.x
      value: -378
      objectReference: {fileID: 0}
    - target: {fileID: 7719174857061144635, guid: 7d8b802f3e81fc249b07815a12d9e848, type: 3}
      propertyPath: m_SizeDelta.y
      value: 100
      objectReference: {fileID: 0}
    - target: {fileID: 7719174857061144635, guid: 7d8b802f3e81fc249b07815a12d9e848, type: 3}
      propertyPath: m_LocalScale.x
      value: 1.5375376
      objectReference: {fileID: 0}
    - target: {fileID: 7719174857061144635, guid: 7d8b802f3e81fc249b07815a12d9e848, type: 3}
      propertyPath: m_LocalScale.y
      value: 1.5375376
      objectReference: {fileID: 0}
    - target: {fileID: 7719174857061144635, guid: 7d8b802f3e81fc249b07815a12d9e848, type: 3}
      propertyPath: m_LocalScale.z
      value: 1.5375376
      objectReference: {fileID: 0}
    - target: {fileID: 7719174857061144635, guid: 7d8b802f3e81fc249b07815a12d9e848, type: 3}
      propertyPath: m_LocalPosition.x
      value: 0
      objectReference: {fileID: 0}
    - target: {fileID: 7719174857061144635, guid: 7d8b802f3e81fc249b07815a12d9e848, type: 3}
      propertyPath: m_LocalPosition.y
      value: 0
      objectReference: {fileID: 0}
    - target: {fileID: 7719174857061144635, guid: 7d8b802f3e81fc249b07815a12d9e848, type: 3}
      propertyPath: m_LocalPosition.z
      value: 0
      objectReference: {fileID: 0}
    - target: {fileID: 7719174857061144635, guid: 7d8b802f3e81fc249b07815a12d9e848, type: 3}
      propertyPath: m_LocalRotation.w
      value: 1
      objectReference: {fileID: 0}
    - target: {fileID: 7719174857061144635, guid: 7d8b802f3e81fc249b07815a12d9e848, type: 3}
      propertyPath: m_LocalRotation.x
      value: -0
      objectReference: {fileID: 0}
    - target: {fileID: 7719174857061144635, guid: 7d8b802f3e81fc249b07815a12d9e848, type: 3}
      propertyPath: m_LocalRotation.y
      value: -0
      objectReference: {fileID: 0}
    - target: {fileID: 7719174857061144635, guid: 7d8b802f3e81fc249b07815a12d9e848, type: 3}
      propertyPath: m_LocalRotation.z
      value: -0
      objectReference: {fileID: 0}
    - target: {fileID: 7719174857061144635, guid: 7d8b802f3e81fc249b07815a12d9e848, type: 3}
      propertyPath: m_AnchoredPosition.x
      value: 15.375244
      objectReference: {fileID: 0}
    - target: {fileID: 7719174857061144635, guid: 7d8b802f3e81fc249b07815a12d9e848, type: 3}
      propertyPath: m_AnchoredPosition.y
      value: -87.63965
      objectReference: {fileID: 0}
    - target: {fileID: 7719174857061144635, guid: 7d8b802f3e81fc249b07815a12d9e848, type: 3}
      propertyPath: m_LocalEulerAnglesHint.x
      value: 0
      objectReference: {fileID: 0}
    - target: {fileID: 7719174857061144635, guid: 7d8b802f3e81fc249b07815a12d9e848, type: 3}
      propertyPath: m_LocalEulerAnglesHint.y
      value: 0
      objectReference: {fileID: 0}
    - target: {fileID: 7719174857061144635, guid: 7d8b802f3e81fc249b07815a12d9e848, type: 3}
      propertyPath: m_LocalEulerAnglesHint.z
      value: 0
      objectReference: {fileID: 0}
    m_RemovedComponents: []
  m_SourcePrefab: {fileID: 100100000, guid: 7d8b802f3e81fc249b07815a12d9e848, type: 3}
