%YAML 1.1
%TAG !u! tag:unity3d.com,2011:
--- !u!114 &11400000
MonoBehaviour:
  m_ObjectHideFlags: 0
  m_CorrespondingSourceObject: {fileID: 0}
  m_PrefabInstance: {fileID: 0}
  m_PrefabAsset: {fileID: 0}
  m_GameObject: {fileID: 0}
  m_Enabled: 1
  m_EditorHideFlags: 0
  m_Script: {fileID: 11500000, guid: e50e97e0a00e37d4d903817ddf085781, type: 3}
  m_Name: Data
  m_EditorClassIdentifier: 
  elements:
  - elementName: Confidentiality
    elementDescription: "Assurance that sensitive information is not disclosed to
      unauthorized individuals.\r"
  - elementName: Integrity
    elementDescription: "Assurance that information is not modified in an unauthorized
      manner.\r"
  - elementName: Availability
    elementDescription: Timely and reliable access to data and services for authorized
      individuals.
  - elementName: Transmission
    elementDescription: "Data in transit over a network or between storage and processing
      units.\r"
  - elementName: Storage
    elementDescription: 'Data at rest such as on a hard drive or in memory

'
  - elementName: Processing
    elementDescription: "Data under operation or being transformed by a computational
      element.\r"
  - elementName: Technology
    elementDescription: Hardware, software or physical security control components.
  - elementName: Policy and Practice
    elementDescription: Governance or procedural rules codified or documented prescribing
      activities and/or engagement of technical security controls to meet a security
      objective or fulfill a security task.
  - elementName: Human Factors
    elementDescription: This includes safeguards that directly impact human behavior
      and organizational culture, including education, training and awareness initiatives.
  controls:
  - name: Firewall
    description: A firewall is a technical control that can be used to filter inbound
      and outbound traffic, in aid of preserving the confidentiality of data on a
      network.
    confirmation: A firewall is a technical control that can be used to filter inbound
      and outbound traffic, in aid of preserving the confidentiality of data on a
      network.
    activators: 00000000
    refLabels:
    - Technology
    - Confidentiality
    - Transmission
  - name: Digital Signature Procedure
    description: A set of prescribed steps by which to affix an electronic marking
      on a data element attesting to its origin integrity.
    confirmation: a digital signature procedure outlines a practice used to preserve
      the integrity of stored data.
    activators: 0d000000
    refLabels:
    - Policy and Practice
    - Integrity
    - Storage
  - name: Homomorphic Encryption
    description: A method of performing computations on encrypted data without the
      need to decrypt it first.
    confirmation: 'Homomorphic encryption is a special form of encryption that allows
      computation over data without revealing its contents, preserving its confidentiality
      during processing.

'
    activators: 02000000
    refLabels:
    - Technology
    - Confidentiality
    - Process
  - name: Full Disk Encryption
    description: Technology that encrypts the entire contents of a disk
    confirmation: The ability to encrypt an entire disk is a convenient method of
      preserving the confidentiality of bulk data at rest.
    activators: 01000000
    refLabels:
    - Technology
    - Confidentiality
    - Storage
  - name: SHA-256
    description: Cryptographic hash algorithm suitable for use in checking content
      integrity of data
    confirmation: The SHA-256 cryptographic hash function can be used to verify the
      integrity of stored data.
    activators: 04000000
    refLabels:
    - Technology
    - Integrity
    - Storage
  - name: VPN User Training
    description: Educational program to teach users how to engage virtual private
      network technology for secure communications across a network
    confirmation: Training on VPN technology will allow users to establish confidential
      communications as they exchange data across a network
    activators: 12000000
    refLabels:
    - Human Factors
    - Confidentiality
    - Transmission
  - name: Backup Procedure
    description: A set of steps to guide the backup of stored data.
    confirmation: Backup procedures prescribe a sequence of steps to replicate data
      on a secondary storage element in the event it becomes lost or corrupted.
    activators: 0d00000010000000
    refLabels:
    - Policy and Practice
    - Integrity
    - Availability
    - Storage
  - name: Disaster Recovery Tabletop Exercise
    description: A simulated training and awareness event that exercises the disaster
      recovery plan of an organization
    confirmation: "A disaster recovery tabletop exercises challenges stakeholders
      to work through a simulated event, training and raising awareness on aspects
      of an organization\u2019s disaster recovery plan."
    activators: 18000000190000001a000000
    refLabels:
    - Human Factors
    - Availability
    - Transmission
    - Storage
    - Processing
  - name: Password Poster
    description: Artifact of an awareness campaign to habituate a user base on good
      password management practices.
    confirmation: A password poster raises user awareness and encourages sound password
      management practices, promoting the integrity of authorized user interactions
      with and access to data held by an organization.
    activators: 1300000016000000
    refLabels:
    - Human Factors
    - Confidentiality
    - Integrity
    - Storage
  - name: Web Encryption Policy
    description: Governance that establishes the use of encryption technology for
      web services.
    confirmation: A web encryption policy establishes governing rules for preserving
      the confidentiality of web traffic.
    activators: 09000000
    refLabels:
    - Policy and Practice
    - Confidentiality
    - Transmission
  - name: Redundant Site
    description: 'Replication of hardware, software and data at a second location. '
    confirmation: A redundant site brings together a collection of hardware, software,
      data and physical resources to create a duplicate facility for information
      processing.
    activators: 060000000700000008000000
    refLabels:
    - Technology
    - Availability
    - Transmission
    - Storage
    - Processing
  - name: Network Perimeter Policy
    description: "Governance that prescribes technical solutions and practices at
      the perimeter of an organization\u2019s network to monitor and control the
      flow of network traffic."
    confirmation: "A network perimeter policy is a governing document that prescribes
      the use of technologies and procedures to monitor and control traffic between
      an organization\u2019s network and the outside world."
    activators: 090000000c0000000f000000
    refLabels:
    - Policy and Practice
    - Confidentiality
    - Integrity
    - Availability
    - Transmission
  currentCubeStatus: 000000000000000000000000000000000000000000000000000000
  doubleCubesStatus: 0000
  cubeControls: 0000000003000000020000000000000004000000000000000a0000000a0000000a0000000900000000000000000000000b00000001000000000000000b0000000600000000000000050000000800000000000000000000000800000000000000070000000700000007000000
